Routinely randomise question display and order to estimate and adjust for biases.
…
How much do our variables change when we residualise for all of these biases?

# A tibble: 29 x 2
   item                   cor
   <chr>                <dbl>
 1 extra_pair_desire_1  0.939
 2 extra_pair_desire_16 0.946
 3 extra_pair_desire_2R 0.955
 4 extra_pair_desire_13 0.964
 5 extra_pair_desire_11 0.966
 6 extra_pair_desire_7  0.966
 7 extra_pair_desire_14 0.977
 8 extra_pair_desire_10 0.978
 9 extra_pair_desire_8  0.983
10 extra_pair_desire_6  0.984
# … with 19 more rows
…
